…
### nodata

The `nodata` function checks to see if any states or species are missing from the daily or season Harvest Survey data. If species are desired in the output, that can be specified with `species = "all"` or by using a species string. The species group can be one of: "Band-tailed Pigeon", "Coots", "Ducks", "Gallinules", "Geese", "Rails", "Sandhill Crane", "Snipe", "Specially Regulated Sea Ducks", or "Woodcock".

An additional parameter in this function is `report`, set to `FALSE` by default. When `report = FALSE` and running `nodata` on season totals, daily data are excluded from season totals. In the R markdown report template, this is set to `report = TRUE` and dailies are not excluded from season totals (to make the report more streamlined).

To demonstrate the use of `nodata` outside of a report, first we will check the daily data:


```r
nodata(daily_records_2020, ref_data = all_seasons_2020)
```

```
## # A tibble: 31 × 2
##    sampled_state has_data
##    <chr>         <chr>   
##  1 Alaska        No      
##  2 Arizona       No      
##  3 Colorado      No      
##  4 Connecticut   No      
##  5 Delaware      No      
##  6 Florida       No      
##  7 Idaho         No      
##  8 Illinois      No      
##  9 Indiana       No      
## 10 Iowa          No      
## # … with 21 more rows
```

Then, we will check the season data:


```r
nodata(season_totals_2020, ref_data = all_seasons_2020)
```

```
## # A tibble: 31 × 2
##    sampled_state has_data
##    <chr>         <chr>   
##  1 Alaska        No      
##  2 Arizona       No      
##  3 Colorado      No      
##  4 Connecticut   No      
##  5 Delaware      No      
##  6 Florida       No      
##  7 Idaho         No      
##  8 Illinois      No      
##  9 Indiana       No      
## 10 Iowa          No      
## # … with 21 more rows
```

We can include species for the season data:


```r
nodata(season_totals_2020, ref_data = all_seasons_2020, species = "all")
```

```
## # A tibble: 301 × 3
##    sampled_state sp_group_estimated has_data
##    <chr>         <chr>              <chr>   
##  1 AL            Rails              No      
##  2 AL            Woodcock           No      
##  3 AL            Snipe              No      
##  4 AL            Gallinules         No      
##  5 AL            Ducks              No      
##  6 AL            Sandhill Crane     No      
##  7 AL            Coots              No      
##  8 AL            Geese              No      
##  9 AK            Ducks              No      
## 10 AK            Geese              No      
## # … with 291 more rows
```

And we can specify which species we want to check, across all states:


```r
nodata(season_totals_2020, ref_data = all_seasons_2020, species = "Coots")
```

```
## # A tibble: 48 × 3
##    sampled_state sp_group_estimated has_data
##    <chr>         <chr>              <chr>   
##  1 AL            Coots              No      
##  2 AR            Coots              No      
##  3 CO            Coots              No      
##  4 MT            Coots              No      
##  5 NM            Coots              No      
##  6 WY            Coots              No      
##  7 CT            Coots              No      
##  8 DE            Coots              No      
##  9 MA            Coots              No      
## 10 MD            Coots              No      
## # … with 38 more rows
```
…
### overbags

The `overbags` function checks for retrieved values over the bag limit per state and species in the daily data. All states are reported by default, but a specific state can be returned instead by using the `state` parameter (e.g. `state = "Alabama"`). The `summary` parameter can be set as TRUE to return a table summarized by state and species to report the max, min, and count of overbag values (defaults to FALSE). Lastly, the `over` parameter defaults to TRUE, but can be set as FALSE to return a table of all values (not just the overbags). 

The default settings can be used for a basic output:


```r
overbags(daily_records_2020, ref_data = all_seasons_2020)
```

```
## # A tibble: 195 × 8
##    selected_hunterID sampled_state county     sp_group_estimat… harvested_date
##                <dbl> <chr>         <chr>      <chr>             <date>        
##  1            121924 Pennsylvania  Erie       Ducks             2020-10-10    
##  2            136394 Minnesota     Anoka      Ducks             2020-09-26    
##  3            138144 Minnesota     Brown      Ducks             2020-09-26    
##  4            146742 Minnesota     Otter Tail Ducks             2020-10-24    
##  5            146742 Minnesota     Otter Tail Ducks             2020-10-18    
##  6            146742 Minnesota     Otter Tail Ducks             2020-10-16    
##  7            146742 Minnesota     Otter Tail Ducks             2020-10-17    
##  8            146742 Minnesota     Otter Tail Ducks             2020-10-15    
##  9            146742 Minnesota     Otter Tail Ducks             2020-10-25    
## 10            146742 Minnesota     Otter Tail Ducks             2020-11-07    
## # … with 185 more rows, and 3 more variables: bag_limit <dbl>,
## #   retrieved <dbl>, unretrieved <chr>
```

Using `summary = TRUE` returns an easy-to-read format:


```r
overbags(daily_records_2020, ref_data = all_seasons_2020, summary = TRUE)
```

```
## # A tibble: 22 × 7
##    sampled_state sp_group_estimated bag_limit   max  mean   min     n
##    <chr>         <chr>                  <dbl> <dbl> <dbl> <dbl> <int>
##  1 Arkansas      Ducks                      6    32  13.7     7    22
##  2 Arkansas      Geese                     20    62  42      22     3
##  3 California    Geese                     20    31  25.3    21     3
##  4 Louisiana     Ducks                      6    55  15.7     7    27
##  5 Maryland      Ducks                      6    13  13      13     1
##  6 Michigan      Ducks                      6    31  13.8     8    13
##  7 Michigan      Geese                     20    34  28      22     2
##  8 Minnesota     Ducks                      6    22  11.6     7    22
##  9 Minnesota     Geese                     20    25  22.3    21     3
## 10 Missouri      Ducks                      6    45  17.8     7     4
## # … with 12 more rows
```

And we can specify a state:


```r
overbags(daily_records_2020, ref_data = all_seasons_2020, state = "Arkansas")
```

```
## # A tibble: 25 × 8
##    selected_hunterID sampled_state county   sp_group_estimated harvested_date
##                <dbl> <chr>         <chr>    <chr>              <date>        
##  1           1040149 Arkansas      Woodruff Ducks              2020-12-27    
##  2           1040149 Arkansas      Cross    Ducks              2020-11-22    
##  3           1741611 Arkansas      Monroe   Geese              2021-02-10    
##  4           2052902 Arkansas      Arkansas Ducks              2020-11-24    
##  5           2059087 Arkansas      Monroe   Ducks              2020-11-21    
##  6           2059087 Arkansas      Monroe   Ducks              2020-11-22    
##  7           2566099 Arkansas      Unknown  Geese              2021-01-26    
##  8           2570123 Arkansas      Boone    Ducks              2020-11-29    
##  9           2583720 Arkansas      Arkansas Ducks              2020-12-20    
## 10           2595074 Arkansas      Jackson  Ducks              2020-11-21    
## # … with 15 more rows, and 3 more variables: bag_limit <dbl>,
## #   retrieved <dbl>, unretrieved <chr>
```

### retrieved

The `retrieved` function summarizes the total number of birds retrieved in the daily or season data. The `output` can be set to "table" (default) or "plot". It can include "state", "species", or "both" (default) by using the `type` parameter. Also, the data can be returned as an `average` using TRUE (default), or return all birds retrieved (`average = FALSE`).

Let's use the most basic version of the function on the daily data:


```r
retrieved(daily_records_2020)
```

```
## # A tibble: 40 × 3
##    sampled_state sp_group_estimated            mean_retrieved
##    <chr>         <chr>                                  <dbl>
##  1 Alabama       Mourning Dove                           12.1
##  2 Alabama       White-Winged Dove                        4  
##  3 Arkansas      Ducks                                   12.4
##  4 Arkansas      Geese                                    3.9
##  5 California    Brant                                    0.2
##  6 California    Ducks                                   21.1
##  7 California    Geese                                    7.4
##  8 California    Specially Regulated Sea Ducks            6  
##  9 Georgia       Mourning Dove                           13  
## 10 Georgia       White-Winged Dove                        3.8
## # … with 30 more rows
```
…
<img src="figure/retrieved6-1.png" title="plot of chunk retrieved6" alt="plot of chunk retrieved6" width="500" style="display: block; margin: auto;" />

### bagspp

The `bagspp` function summarizes daily data to determine the total number of retrieved birds per hunter. The hunter's data are further broken down to determine which species groups the hunter responded to harvesting.

The default is `output = "table"`:


```r
bagspp(daily_records_2020)
```

```
## # A tibble: 2,773 × 4
##    selected_hunterID n_spp spp_combo   n_retrieved_total
##                <dbl> <int> <chr>                   <dbl>
##  1              2314     1 Ducks                       9
##  2              3219     1 Ducks                       5
##  3              4878     1 Ducks                       3
##  4              4939     2 Ducks-Geese                28
##  5              5123     2 Ducks-Geese                20
##  6              5483     1 Ducks                       7
##  7              6685     1 Ducks                       3
##  8              7789     1 Ducks                      20
##  9              7797     2 Ducks-Geese                30
## 10             10318     2 Ducks-Geese                 0
## # … with 2,763 more rows
```
…
<img src="figure/bagspp4-1.png" title="plot of chunk bagspp4" alt="plot of chunk bagspp4" width="500" style="display: block; margin: auto;" />

### openclose

The `openclose` function checks if harvest dates fall outside of a state's and species's season in the daily data.

The basic version of the function returns an unsummarized table:


```r
openclose(daily_records_2020, ref_data = all_seasons_2020)
```

```
## # A tibble: 40 × 6
##    selected_hunter… sampled_state sp_group_estima… open       close      error
##               <dbl> <chr>         <chr>            <date>     <date>     <chr>
##  1           422536 Louisiana     Ducks            2020-09-12 2021-02-07 Earl…
##  2           422536 Louisiana     Ducks            2020-09-12 2021-02-07 Earl…
##  3           454023 Louisiana     Ducks            2020-09-12 2021-02-07 Earl…
##  4           307419 Missouri      Geese            2020-10-03 2021-02-06 Late…
##  5           163972 South Dakota  Geese            2020-09-05 2021-02-14 Earl…
##  6           310953 Washington    Ducks            2020-09-26 2021-02-06 Late…
##  7           558031 Missouri      Geese            2020-10-03 2021-02-06 Late…
##  8           558031 Missouri      Geese            2020-10-03 2021-02-06 Late…
##  9           558031 Missouri      Geese            2020-10-03 2021-02-06 Late…
## 10           558031 Missouri      Geese            2020-10-03 2021-02-06 Late…
## # … with 30 more rows
```
…
### partyhunt

The `partyhunt` function checks to see if any comments in the daily data indicate that bag values reported were for two or more people. It returns a simple table. This function is a watered down version of [partyproof](#partyproof).


```r
partyhunt(daily_records_2020)
```

```
## # A tibble: 45 × 6
##    sampled_state sp_group_estimated retrieved unretrieved comment   party_size
##    <chr>         <chr>                  <dbl> <chr>       <chr>     <chr>     
##  1 Minnesota     Ducks                     18 NULL        3 people  3         
##  2 Minnesota     Ducks                     14 NULL        3 hunters 3         
##  3 Minnesota     Ducks                     21 NULL        4 hunters 4         
##  4 Minnesota     Ducks                     22 NULL        4 hunters 4         
##  5 Minnesota     Ducks                     12 NULL        2 hunters 2         
##  6 Minnesota     Ducks                      8 NULL        2 hunters 2         
##  7 Missouri      Ducks                      3 0           2 hunter… 2         
##  8 Missouri      Ducks                      2 NULL        2 hunter… 2         
##  9 Tennessee     Ducks                      2 0           Saw a bu… 20        
## 10 California    Ducks                      7 1           5mal, 2g… 4         
## # … with 35 more rows
```

### huntdays

The `huntdays` function summarizes the total number of days hunted in the daily data. The `output` can be set to "table" (default) or "plot". It can include "state", "species", or "both" (default) by using the `type` parameter. Also, the data can be returned as an `average` using TRUE (default), or return all days hunted (`average = FALSE`).

Let's use the most basic version of the function on the daily data:


```r
huntdays(daily_records_2020)
```

```
## # A tibble: 40 × 3
##    sampled_state sp_group_estimated            mean_days
##    <chr>         <chr>                             <dbl>
##  1 Alabama       Mourning Dove                       1.4
##  2 Alabama       White-Winged Dove                   2  
##  3 Arkansas      Ducks                               4.7
##  4 Arkansas      Geese                               2.3
##  5 California    Brant                               1.5
##  6 California    Ducks                               6.7
##  7 California    Geese                               4.4
##  8 California    Specially Regulated Sea Ducks       2  
##  9 Georgia       Mourning Dove                       1.7
## 10 Georgia       White-Winged Dove                   1  
## # … with 30 more rows
```
…
The `bagdays` function determines the total number of days hunted per hunter and species group in the daily data. The default `output = "table"` returns a table. Use `output = "plot"` to return a ggplot object.


```r
bagdays(daily_records_2020, output = "plot")
```

<img src="figure/bagdays1-1.png" title="plot of chunk bagdays1" alt="plot of chunk bagdays1" width="500" style="display: block; margin: auto;" />

```r
bagdays(daily_records_2020, output = "table")
```

```
## # A tibble: 3,778 × 4
##    selected_hunterID sp_group_estimated n_days n_retrieved
##                <dbl> <chr>               <int>       <dbl>
##  1              2314 Ducks                   8           9
##  2              3219 Ducks                   3           5
##  3              4878 Ducks                   1           3
##  4              4939 Ducks                   5          26
##  5              4939 Geese                   1           2
##  6              5123 Ducks                   5          19
##  7              5123 Geese                   1           1
##  8              5483 Ducks                   3           7
##  9              6685 Ducks                   1           3
## 10              7789 Ducks                  11          20
## # … with 3,768 more rows
```
…
